{
  "project_info": {
    "project_number": "132089451923",
    "firebase_url": "https://test-248716.firebaseio.com",
    "project_id": "test-248716",
    "storage_bucket": "test-248716.appspot.com"
  },
  "client": [
    {
      "client_info": {
        "mobilesdk_app_id": "1:132089451923:android:8fafe908aad75e2f738466",
        "android_client_info": {
          "package_name": "com.loginapp"
        }
      },
      "oauth_client": [
        {
          "client_id": "132089451923-qj9je9upvje2d7naun42p7sc8bgrdq0j.apps.googleusercontent.com",
          "client_type": 1,
          "android_info": {
            "package_name": "com.loginapp",
            "certificate_hash": "5e8f16062ea3cd2c4a0d547876baa6f38cabf625"
          }
        },
        {
          "client_id": "132089451923-hdqmpkiuij063801b06sei4ntvlh6oi1.apps.googleusercontent.com",
          "client_type": 3
        }
      ],
      "api_key": [
        {
          "current_key": "AIzaSyCR2i79aw_xA3UYfDKho-whM9nhLlDSpE4"
        }
      ],
      "services": {
        "appinvite_service": {
          "other_platform_oauth_client": [
            {
              "client_id": "132089451923-hdqmpkiuij063801b06sei4ntvlh6oi1.apps.googleusercontent.com",
              "client_type": 3
            }
          ]
        }
      }
    }
  ],
  "configuration_version": "1"
}